Jesus Montealegre
\Vista\noticia\reporteNoticia\reporteNotiView.php
\Vista\Seguridad\ficha\fichaView.php
----------------------------------------------------------
CARLOS ESTEBAN ROJAS
\Vista\Seguridad\registroApreView.html
\Vista\Seguridad\formularioPersView.php
\Vista\Seguridad\formularioUsuaView.php
----------------------------------------------------------
JUAN DAVID CAVIEDES VERA
\Vista\gimnasio\ambiente\ambiView.php
\Vista\gimnasio\nivelprog\niveProgView.php
\Vista\noticia\reporteRutina\reporterutiView.php
----------------------------------------------------------
ANDRES FELIPE JIMENEZ
\Vista\Seguridad\consulta_InstFichaView.php
\Vista\Seguridad\reporte_aprendizView.php
----------------------------------------------------------
ALEY GUEVARA RAMIREZ
\Vista\gimnasio\rutinaEjercicio.php
----------------------------------------------------------
FREIMAN NORVEY URIBE RUIZ
\Vista\Seguridad\formularioProfView.php
\Vista\ubicacion\formularioRgnalView.php
\Vista\Seguridad\reporteApreFichView.php
----------------------------------------------------------
JULIAN FELIPE GARCIA
\Vista\Seguridad\aprendizView.html
\Vista\Seguridad\rolView.html
----------------------------------------------------------
JHOAN SEBASTIAN GARCIA ALVAREZ
\Vista\Seguridad\aprendizFichView.php
\Vista\Seguridad\crearInstView.php
----------------------------------------------------------
YEISON STIVEN CUENCA CEDENO
\Vista\inventario\formularioAdmiInveView (2).html
\Vista\ubicacion\formularioSedeView.html
----------------------------------------------------------
Jesus David
\Vista\ubicacion\formularioRegiView.php
\Vista\inventario\formularioEntrPresView.html
\Vista\inventario\formularioReciPresView.html
----------------------------------------------------------